// Jest Snapshot v1, https://goo.gl/fbAQLP

exports[`ChartActionTesting Should render 1`] = `
<DocumentFragment>
  <div
    class="chart-container undefined sc-bdVaJa bJlYbw"
  >
    <div
      class="sc-bdVaJa bJlYbw"
    >
      <div
        class="sc-bwzfXH gZpvKm"
      >
        <div
          class="sc-htpNat bcdNgi"
        >
          <label />
          <button
            class="area-selected  sc-bxivhb fJKUUf"
            id="area1"
          >
            area1 
            <i
              class="icon-caret-down  "
            />
          </button>
        </div>
      </div>
    </div>
    <div
      class="sc-bdVaJa bJlYbw"
    >
      <div
        class="sc-bwzfXH gZpvKm"
      >
        <div
          class="radio-container undefined sc-bdVaJa bJlYbw"
          id="filter"
        >
          <div
            class="horizontal"
          >
            <div
              class="radio radio-item undefined sc-bdVaJa bJlYbw"
            >
              <input
                checked=""
                id="all"
                name="filter"
                type="radio"
                value="all"
              />
              <label
                class="checkmark red"
                for="all"
              >
                 
              </label>
              <label
                class="label-radio"
                for="all"
              >
                all 
              </label>
            </div>
            <div
              class="radio radio-item undefined sc-bdVaJa bJlYbw"
            >
              <input
                id="23:00"
                name="filter"
                type="radio"
                value="23:00"
              />
              <label
                class="checkmark red"
                for="23:00"
              >
                 
              </label>
              <label
                class="label-radio"
                for="23:00"
              >
                23:00 
              </label>
            </div>
            <div
              class="radio radio-item undefined sc-bdVaJa bJlYbw"
            >
              <input
                id="22:00"
                name="filter"
                type="radio"
                value="22:00"
              />
              <label
                class="checkmark red"
                for="22:00"
              >
                 
              </label>
              <label
                class="label-radio"
                for="22:00"
              >
                22:00 
              </label>
            </div>
            <div
              class="radio radio-item undefined sc-bdVaJa bJlYbw"
            >
              <input
                id="21:00"
                name="filter"
                type="radio"
                value="21:00"
              />
              <label
                class="checkmark red"
                for="21:00"
              >
                 
              </label>
              <label
                class="label-radio"
                for="21:00"
              >
                21:00 
              </label>
            </div>
            <div
              class="radio radio-item undefined sc-bdVaJa bJlYbw"
            >
              <input
                id="20:00"
                name="filter"
                type="radio"
                value="20:00"
              />
              <label
                class="checkmark red"
                for="20:00"
              >
                 
              </label>
              <label
                class="label-radio"
                for="20:00"
              >
                20:00 
              </label>
            </div>
          </div>
        </div>
      </div>
    </div>
  </div>
</DocumentFragment>
`;
